上映日期----名字----监制----导演----别名----合作公司或下属公司----备注

1971/01/22 <<天龙八将>> 邹文怀 罗 维
1971/04/30 <<刀不留人>> 邹文怀 叶荣祖
1971/05/12 <<鬼怒川>> 邹文怀 黄 枫
1971/07/28 <<夺命金剑>> 诸葛青云 黄 枫 [嘉祥]
1971/08/02 <<独臂拳王>> 邹文怀 王 羽 台湾出品
1971/08/11 <<鬼流星>> 邹文怀 罗 维 [四维]
1971/10/07 <<追击>> 邹文怀 王天林
1971/10/31 <<唐山大兄>> 邹文怀 罗 维
1971 <<一夫当关>> 邹文怀 徐增宏 <<一夫官闻>> 台湾出品
--------------------------------------------------------

1972/02/12 <<金旋风>> 邹文怀 罗 维
1972/03/03 <<山东响马>> 邹文怀 黄 枫
1972/03/22 <<精武门>> 邹文怀 罗 维 [嘉林]
1972/06/01 <<铁掌旋风腿>> 邹文怀 黄 枫 [嘉联]
1972/10/12 <<合气道>> 邹文怀 黄 枫 [嘉联]
1972/12/30 <<猛龙过江>> 邹文怀 李小龙 [协和]
1972 <<东南西北风>> 白景瑞 白景瑞 [白氏]
--------------------------------------------------------

1973/01/25 <<烈日狂风>> 邹文怀、袁永安 巫敏雄 [安达]
1973/02/01 <<冷面虎>> 邹文怀 罗 维 [嘉峰]
1973/02/17 <<马路小英雄>> 邹文怀 罗 维
1973/03/31 <<糊涂大将军>> 汤 生 [四维]
1973/04/30 <<海员七号>> 邹文怀 罗 维 [汇丰]
1973/05/10 <<铁娃>> 邹文怀 罗 维
1973/07/13 <<战神滩>> 邹文怀 王 羽
1973/08/03 <<黑夜怪客>> 邹文怀 郑昌和 [宇进]
1973/08/10 <<人尽可夫女王蜂>> 丁善玺 <<女王蜂>>
1973/09/12 <<跆拳震九州>> 邹文怀 黄 枫
1973/10/11 <<五雷轰顶>> 邹文怀 罗 炽
1973/10/14 <<李小龙的生与死>> [协和] 纪录片
1973/10/18 <<龙争虎斗>> 邹文怀 高洛丝 [协和]
1973/12/06 <<迎春阁之风波>> 邹文怀 胡金铨 [金铨]
1973/12/21 <<龙虎金刚>> 邹文怀 罗 维
--------------------------------------------------------

1974/01/22 <<黄飞鸿少林拳>> 邹文怀 郑昌和 [合同]
1974/02/06 <<七省拳王>> 邹文怀 午 马
1974/04/05 <<小英雄大闹唐人街>> 邹文怀 罗 维 [罗维]
1974/05/31 <<至尊宝>> 邹文怀 朱 牧 [新天地]
1974/06/14 <<福建少林拳>> 黄 达 [嘉氏]
1974/07/05 <<虎辫子>> 邹文怀 丁善玺
1974/07/18 <<绰头状元>> 邹文怀 罗 维
1974/08/02 <<铁金刚大破紫阳观>> 邹文怀 黄 枫
1974/08/16 <<黄面老虎>> 邹文怀 罗 维
1974/09/28 <<中泰拳坛生死战>> 邹文怀 黄 枫
1974/10/17 <<鬼马双星>> 邹文怀 许冠文 [许氏]
--------------------------------------------------------

1975/01/01 <<心魔>> 邹文怀 罗 维
1975/02/08 <<花飞满城春>> 邹文怀 朱 牧 [新天地]
1975/02/19 <<忠烈图>> 胡金铨 [金铨]
1975/03/15 <<女子跆拳群英会>> 邹文怀 吴宇森
1975/04/11 <<驱魔女>> 邹文怀 丁善玺
1975/06/12 <<艳窟神探>> 邹文怀 郑昌和 [昌禾]
1975/07/17 <<大千世界>> 邹文怀 丁善玺
1975/07/31 <<直捣黄龙>> 邹文怀 王 羽 郑嘉时
1975/08/21 <<天才与白痴>> 邹文怀 许冠文 [许氏]
1975/09/12 <<铁汉柔情>> 邹文怀 吴宇森
1975/12/05 <<拍案惊奇>> 邹文怀 朱 牧 [新天地]
--------------------------------------------------------

1976/01/30 <<帝女花>> 吴宇森 [嘉凤] 戏曲片
1976/02/20 <<密宗圣手>> 邹文怀 黄 枫
1976/03/27 <<阿福被鬼迷>> 张 扬
1976/04/15 <<温拿与教叔>> 邹文怀 康 威 <<温拿与教授>>
1976/05/27 <<阿茂正传>> 邹文怀 朱 牧 [新天地]
1976/07/15 <<少林门>> 邹文怀 吴宇森 [嘉峰]
1976/07/24 <<北少林>> 邹文怀 彭长贵
1976/07/28 <<秋霞>> 邹文怀 宋存寿
1976/08/13 <<鬼计双雄>> 邹文怀 郑昌和
1976/09/16 <<鳄潭群英会>> 邹文怀 丁善玺
1976/12/16 <<半斤八两>> 邹文怀 许冠文 [许氏]
--------------------------------------------------------

1977/03/17 <<独臂侠大战独臂侠>> 黄卓汉 金圣恩
1977/04/07 <<四大门派>> 邹文怀 黄 枫
1977/07/08 <<鬼马姑爷仔>> 朱 牧
1977/07/29 <<发钱寒>> 邹文怀 吴宇森
1977/08/25 <<三德和尚与舂米六>> 邹文怀 洪金宝
1977/10/20 <<四二六>> 邹文怀 林国翔
1977/12/03 <<破戒>> 邹文怀 郑昌和
1977/ <<第二道彩虹>> 邹文怀 宋存寿 台湾出品
--------------------------------------------------------

1978/02/04 <<大煞星与小妹头>> 邹文怀 吴宇森
1978/02/23 <<荷京喋血>> 邹文怀 高洛丝
1978/03/16 <<貂女>> 邹文怀 黄 枫
1978/03/23 <<死亡游戏>> 邹文怀 高洛丝
1978/08/03 <<卖身契>> 邹文怀 许冠文 [许氏]
1978/09/06 <<大路强人>> 邹文怀 林国翔
1978/09/14 <<追赶跑跳碰>> 邹文怀 陈耀圻
1978/11/16 <<哈罗，夜归人>> 邹文怀 吴宇森 薛志雄 刘天赐
1978/12/28 <<赞先生与找钱华>> 邹文怀 洪金宝
1978/ <<旧梦不须记>> 邹文怀 张艾嘉 <<某年某月的某一天>> 台湾出品
--------------------------------------------------------

1979/01/26 <<神偷妙探手多多>> 邹文怀 梁普智
1979/04/12 <<杂家小子>> 邹文怀 洪金宝
1979/08/31 <<亡命娇娃>> 邹文怀 林国翔
1979/09/19 <<毒计>> 邹文怀 华 仁
1979/10/04 <<慌失失>> 邹文怀 吴耀汉
1979/11/22 <<豪侠>> 邹文怀、吴宇森 吴宇森
1979/12/19 <<林世荣>> 邹文怀 袁和平
--------------------------------------------------------

1980/01/10 <<错误的第一步>> 欧阳俊
1980/02/09 <<师弟出马>> 邹文怀 成 龙
1980/04/03 <<夜车>> 邹文怀 严 浩
1980/04/17 <<坏小子>> 邹文怀 李荣章
1980/07/10 <<钱作怪>> 邹文怀 吴宇森
1980/08/14 <<名剑>> 邹文怀 谭家明
1980/09/26 <<风尘>> 邹文怀 钟国仁
1980/10/16 <<杀手壕>> 邹文怀 高洛丝
1980/12/24 <<鬼打鬼>> 邹文怀 洪金宝 [嘉宝]
--------------------------------------------------------

1981/01/30 <<摩登保镖>> 邹文怀 许冠文 [许氏]
1981/03/05 <<勇者无惧>> 邹文怀 袁和平 [和平]
1981/03/21 <<死亡塔>> 邹文怀 吴思远
1981/04/02 <<粉骷髅>> 邹文怀 冯淬帆
1981/04/16 <<公子娇>> 邹文怀 严 浩
1981/07/29 <<龙咁威>> 邹文怀 梁普智
1981/08/13 <<两小无知>> 陈欣健、刘亮华 舒 琪 [尊信]
1981/08/27 <<炮弹飞车>> 邹文怀 哈尔尼达姆
1981/09/10 <<撞板神探电子龟>> 陈欣健、刘亮华 黄 志 [尊信]
1981/10/22 <<凶蝎>> 邹文怀 钟国仁
1981/12/10 <<老衬当旺>> 刘亮华 张 森 [文昌]
1981/12/22 <<败家仔>> 邹文怀 洪金宝
--------------------------------------------------------

1982/01/21 <<龙少爷>> 邹文怀 成 龙
1982/04/08 <<摩登天师>> 邹文怀 吴宇森
1982/06/04 <<巡城马>> 邹文怀 于仁泰 [和平]
1982/07/23 <<奇门遁甲>> 邹文怀 袁和平 [和平]
1982/10/07 <<八彩林亚珍>> 邹文怀 吴宇森
1982/10/21 <<凉茶马尾飞机头>> 邹文怀 赖建国 [灵活]
1982/12/22 <<人吓人>> 邹文怀 午 马
1982 <<飞弹大决战>> 邹文怀 陈锡康
1982 <<冲破黑漩涡>> 邹文怀 欧阳俊 <<烂命好汉>>
--------------------------------------------------------

1983/01/13 <<生死决>> 邹文怀 程小东
1983/02/05 <<新蜀山剑侠>> 邹文怀 徐 克
1983/03/31 <<追鬼七雄>> 许冠文 于仁泰 [许氏]
1983/07/07 <<奇谋妙计五福星>> 邹文怀 洪金宝
1983/08/19 <<家在香港>> 邹定欧 敬海林 [嘉峰][金泉]
1983/08/24 <<天师撞邪>> 黄 海 袁和平 [第一][和平]
1983/10/13 <<波牛>> 邹文怀 袁振洋 [和平]
1983/11/19 <<狂情>> 邹文怀 黎大炜
1983/12/22 <<A计划>> 邹文怀 成 龙
--------------------------------------------------------

1984/01/12 <<人吓鬼>> 洪金宝 钱月升 [宝禾]
1984/01/26 <<铁板烧>> 邹文怀 许冠文 [许氏]
1984/02/22 <<神勇双响炮>> 洪金宝 张同祖 [宝禾]
1984/03/22 <<停不了的爱>> 麦当雄 麦当杰 [麦当雄]
1984/05/03 <<无名火>> 邹文怀 梁家仁
1984/07/11 <<省港旗兵>> 洪金宝、麦当雄 陈欣健 [宝禾][麦当雄][嘉峰]
1984/07/25 <<先生贵姓>> 邹文怀 赖建国
1984/08/09 <<炮弹飞车续集>> 邹文怀、麦安礼 哈尔尼达姆
1984/08/17 <<快餐车>> 邹文怀 洪金宝
1984/10/18 <<有Friend冇惊>> 邓光荣 萧 荣 [大荣]
1984/11/02 <<等待黎明>> 岑建勋 梁普智 [宝禾][德宝]
1984/11/29 <<夹心沙展>> 邹文怀 巴 山 [嘉峰]
--------------------------------------------------------

1985/01/04 <<开心三响炮>> 邓光荣 张同祖 [大荣]
1985/02/10 <<福星高照>> 何冠昌 洪金宝 [宝禾]
1985/04/10 <<花仔多情>> 邹定欧 王英杰 [特高]
1985/05/01 <<青梅竹马>> 杨德昌 台湾出品
1985/05/30 <<时来运转>> 洪金宝 刘家荣 [宝禾]
1985/07/11 <<威龙猛探>> 何冠昌 占士.格力高
1985/08/15 <<夏日福星>> 洪金宝 洪金宝 [宝禾][宝祥]
1985/09/11 <<花女情狂>> 李荣章 何 藩 [城市]
1985/10/16 <<龙的心>> 何冠昌 洪金宝 [宝禾]
1985/11/07 <<僵尸先生>> 洪金宝 刘观伟 [宝禾]
1985/12/05 <<欢场>> 麦当雄 麦当杰 [新香港]
1985/12/14 <<警察故事>> 陈自强 成 龙 [威禾]
--------------------------------------------------------

1986/01/11 <<两公婆八条心>> 洪金宝 卢 坚 张坚庭 曾志伟 [宝禾][二友]
1986/01/18 <<鬼马朱唇>> 邹定欧 黎大炜
1986/01/30 <<富贵列车>> 何冠昌 洪金宝 [宝禾]
1986/02/27 <<奇缘>> 邹定欧 程小东
1986/03/21 <<欢乐叮当>> 邹文怀 许冠文 [许氏]
1986/04/12 <<午夜丽人>> 麦当雄 黎大炜 [新香港]
1986/05/29 <<竹篱笆外的春天>> 朱延平、徐 枫 李佑宁 [汤臣] 台湾出品
1986/06/05 <<杀妻2人组>> 王晶 钟镇涛 [高高]
1986/06/20 <<神勇双响炮续集>> 洪金宝 张同祖 [宝禾]
1986/07/03 <<最佳福星>> 洪金宝 曾志伟 [宝禾][儿童城]
1986/07/25 <<扭计杂牌军>> 成 龙 钱升伟 [威禾]
1986/08/08 <<再见妈咪>> 洪金宝 林德禄 [宝禾]
1986/08/14 <<双龙吐珠>> 岑建勋 叶荣祖 [宝禾][德宝]
1986/08/15 <<僵尸家族>> 洪金宝 刘观伟 [宝禾]
1986/09/12 <<英雄无泪>> 邹文怀 吴宇森
1986/09/15 <<我的爱神>> 邹定欧 赖建国 [特高]
1986/09/20 <<俾鬼捉>> 蓝乃才
1986/10/17 <<原振侠与卫斯理>> 蔡 澜、王 晶 蓝乃才
1986/10/30 <<义盖云天>> 邓光荣 罗 文 [大荣]
1986/11/17 <<海上花>> 林登飞 杨 凡 [中影][花生映社]
1986/11/21 <<青春怒潮>> 邹定欧 蔡继光
1986/11/27 <<执法先锋>> 元 彪、元 奎 元 奎 [泰禾][宝禾]
1986/12/19 <<神探朱古力>> 许冠文 陈欣健 [许氏]
1986/ <<母牛一条>> 李培桂 张佩成 [飞腾] 台湾出品
--------------------------------------------------------

1987/01/09 <<表哥到>> 洪金宝 午 马 [宝禾]
1987/01/22 <<龙兄虎弟>> 何冠昌 成 龙
1987/02/28 <<不归路>> 张蜀生 台湾出品
1987/03/06 <<小生梦惊魂>> 洪金宝 刘家荣 [宝禾][艺能]
1987/03/12 <<肝胆相照>> 洪金宝 黎大炜 [宝禾][艺能]
1987/03/20 <<最后一战>> 洪金宝 卢 坚 [宝禾]
1987/04/01 <<烂赌英雄>> 蔡 澜 王 晶
1987/04/11 <<一屋两妻>> 洪金宝 陈 友 [宝禾][二友]
1987/04/23 <<恐布份子>> 林登飞 杨德昌 [中影] 台湾出品
1987/05/08 <<不夜天>> 蔡 澜 蓝乃才
1987/05/21 <<开心快活人>> 李添胜
1987/06/18 <<良宵花弄月>> 成 龙 楚 原 [威禾]
1987/07/09 <<东方秃鹰>> 何冠昌 洪金宝 [宝禾]
1987/07/30 <<江湖龙虎斗>> 邓光荣 张同祖 [影之杰]
1987/08/19 <<A计划续集>> 何冠昌 成 龙 [威禾]
1987/10/01 <<1哥>> 伍永熙 范秀明 [历高]
1987/10/07 <<旗正飘飘>> 邹文怀、许新枝、汤养浩/丁善玺 <<烽火佳人>> [中影][汤臣] 台湾出品
1987/10/15 <<鬼新娘>> 麦当雄、萧若元 黄泰来 黎大炜 [新香港]
1987/11/05 <<省港旗兵续集>> 麦当雄 麦当杰 [新香港]
1987/11/19 <<猛鬼差馆>> 邓光荣 刘镇伟 [影之杰]
1987/12/03 <<标错参>> 邹定欧 张坚庭 <<绑错票>> [宝禾][二友]
1987/12/17 <<灵幻先生>> 洪金宝 刘观伟 [宝禾]
1987/ <<全力反弹>> 午 马 吴国孝 [宝禾][嘉峰] 台湾出品
--------------------------------------------------------

1988/01/07 <<胭脂扣>> 成 龙 关锦鹏 [威禾]
1988/02/11 <<飞龙猛将>> 何冠昌 洪金宝
1988/03/04 <<中国最后一个太监>> 洪金宝 张之亮 [宝禾]
1988/03/18 <<画中仙>> 洪金宝 午 马 [宝禾]
1988/03/31 <<一妻两夫>> 洪金宝 陈 友 [宝禾][二友]
1988/04/01 <<桂花巷>> 邹文怀、许新枝 陈坤厚 [中影][学者] 台湾出品
1988/04/14 <<过埠新娘>> 蔡永昌 张坚庭 [宝禾]
1988/04/15 <<稻草人>> 王 童 [中影] 台湾出品
1988/04/29 <<爱情谜语>> 蔡 澜 陈安琪
1988/05/05 <<群莺乱舞>> 蔡 澜 区丁平
1988/05/20 <<三对鸳鸯一张床>> 蔡 澜 张之珏
1988/06/03 <<霸王花>> 成 龙 钱升伟 [威禾]
1988/07/08 <<月亮星星太阳>> 萧若元 麦当杰 [新香港]
1988/07/22 <<神探父子兵>> 午 马 元 奎 [宝禾]
1988/07/30 <<公子多情>> 萧若元 霍耀良
1988/08/20 <<警察故事续集>> 何冠昌 成 龙 [威禾]
1988/09/16 <<挑情>> 李泰亨
1988/09/22 <<群龙夺宝>> 邹定欧 袁振洋 <<猎犬神枪老狐狸>> [宝禾]
1988/09/23 <<郁达夫传奇>> 蔡 澜 方令正
1988/10/05 <<血玫瑰>> 蔡 澜 蓝乃才
1988/10/07 <<亡命鸳鸯>> 洪金宝 张坚庭 [宝禾][二友]
1988/10/29 <<又见冤家>> 冼杞然 [邵氏]
1988/11/05 <<亡命天涯>> 邹定欧 赖建国
1988/11/10 <<七小福>> 何冠昌、方逸华 罗启锐 [邵氏]
1988/12/01 <<尽诉心中情>> 麦当雄 麦当杰 黎大炜 [新香港]
1988/12/07 <<桃花>> 李再馨
1988/12/22 <<僵尸叔叔>> 洪金宝、陈佩华 刘观伟 [宝禾]
1988/ <<种女>> 古宗瑛 林光泰 韩国出品
--------------------------------------------------------

1989/01/28 <<神勇飞虎霸王花>> 成 龙 钱升伟 [威禾]
1989/03/04 <<四千金>> 蔡 澜 陆剑明 [历高]
1989/03/13 <<孔雀王子>> 何冠昌 蓝乃才
1989/03/18 <<再见王老五>> 洪金宝、陈佩华 尔东升 [宝禾][二友]
1989/04/28 <<师姐大晒>> 元 奎 孟 海 [宝禾]
1989/05/06 <<火烛鬼>> 洪金宝、陈佩华 午 马 [宝禾]
1989/05/20 <<小男人周记>> 蔡 澜、郑丹瑞 陈嘉上
1989/06/15 <<奇迹>> 何冠昌 成 龙 [威禾]
1989/07/13 <<返老还童>> 曾志伟 曾志伟 [友禾]
1989/07/26 <<一眉道人>> 蔡 澜 林正英 [大路]
1989/08/09 <<富贵开心鬼>> 邹定欧 黎大炜
1989/08/18 <<急冻奇侠>> 萧若元 霍耀良 [麦当雄]
1989/09/07 <<不脱袜的人>> 陈佩华 陈 友 [宝禾][二友]
1989/09/21 <<潘金莲之前世今生>> 泰迪罗宾 罗卓瑶 [友禾]
1989/10/01 <<说谎的女人>> 陈自强 梁李少霞 区丁平 [威禾]
1989/10/15 <<求爱夜惊魂>> 陈佩华、张坚庭 冯意清 [宝禾][二友]
1989/10/26 <<我爱唐人街>> 邹定欧、伍永熙 陆剑明 [历高]
1989/11/02 <<三狼奇案>> 萧若元 黄泰来 [麦当雄、新香港]
1989/12/16 <<缘份游戏>> 黎小田 陈国新 [华雅]
1989/ <<潇洒先生>> 蔡 澜、郑则士 郑则士
--------------------------------------------------------

1990/01/06 <<安乐战场>> 曾志伟 [友禾]
1990/01/20 <<乱世儿女>> 洪金宝、元奎 泰迪罗宾 [宝禾][嘉峰]
1990/01/29 <<阿修罗>> 蔡 澜 蓝乃才 刘仕裕
1990/02/16 <<错在新宿>> 蔡 澜、郑丹瑞 陈嘉上 <<小男人游记>>
1990/03/02 <<监狱不设防>> 周振东 夏秀轩
1990/03/24 <<舞台姊妹>> 成 龙 午 马 [威禾]
1990/03/30 <<小心间谍>> 泰迪罗宾 麦大杰 [友禾]
1990/04/07 <<皇家女将>> 洪金宝 元 奎 [宝禾]
1990/05/19 <<聊斋艳谭>> 蔡 澜 蓝乃才 [大路]
1990/06/28 <<表姐,你好嘢!>> 陈佩华 张坚庭 [宝禾][二友]
1990/07/20 <<地下通道>> 萧若元 麦当杰 [麦当雄]
1990/07/28 <<川岛芳子>> 泰迪罗宾 方令正 [友禾]
1990/08/11 <<尸家重地>> 元 奎 刘镇伟 [宝禾]
1990/08/18 <<赌圣>> 元 奎 刘镇伟 元 奎 [思远]
1990/09/15 <<笑星撞地球>> 曾志伟 胡大为 [友禾][耀荣]
1990/09/27 <<无敌幸运星>> 陈 友 陈 友 [二友]
1990/10/18 <<衰鬼撬墙脚>> 刘观伟 刘观伟 [宝禾]
1990/11/02 <<古惑大律师>> 陈佩华、张坚庭 张坚庭 [宝禾][二友]
1990/11/16 <<西环的故事>> 成 龙 午 马 [威禾]
1990/12/06 <<爱在别乡的季节>> 泰迪罗宾 罗卓瑶 [友禾]
1990/12/06 <<僵尸医生>> 蔡 澜 陆剑明
1990/ <<救命宣言>> 高志森 林德禄 [宝禾]
1990/ <<忍者龟>>
--------------------------------------------------------

1991/01/10 <<卫斯理之霸王卸甲>> 徐小明 徐小明 [宝禾]
1991/01/23 <<聊斋艳谭2五通神>> 陈丽英 敖志君 [大路]
1991/02/07 <<飞鹰计划>> 何冠昌 成 龙
1991/03/07 <<赌霸>> 刘镇伟、元奎 刘镇伟 元 奎 [宝禾]
1991/03/21 <<我老婆唔系人>> 蔡 澜、陈庆嘉 陈德森
1991/03/28 <<何日君再来>> 蔡 澜 区丁平
1991/04/05 <<跛豪>> 萧若元 潘文杰 [麦当雄]
1991/05/23 <<着牛仔裤的钟馗>> 黎继明
1991/05/31 <<女机械人>> 蔡 澜 陆剑明
1991/06/13 <<表姐，你好嘢！2>> 张坚庭 张坚庭 [宝禾][二友]
1991/07/20 <<极道追踪>> 曾志伟 许鞍华 [友禾]
1991/08/15 <<黄飞鸿>> 徐 克 徐 克
1991/09/07 <<Yes!一族>> 泰迪罗宾 罗卓瑶 [友禾]
1991/09/14 <<火爆浪子>> 成 龙 王龙威
1991/11/06 <<大闹广昌隆>> 蔡 澜、区丁平 陈 果
1991/11/07 <<神探马如龙>> 蔡 澜、郑丹瑞 陈嘉上
1991/11/30 <<玉蒲团之偷情宝鉴>> 萧若元 麦当杰 [麦当雄]
1991/ <<一世好命>> 刘镇伟 梁家树 [宝禾]
--------------------------------------------------------

1992/01/23 <<夜夜伴肥娇>> 陈 友 钱永强 [二友]
1992/01/25 <<双龙会>> 徐 克 林岭东
1992/02/20 <<阮玲玉>> 陈自强、徐小明 关锦鹏 [威禾]
1992/04/02 <<太子爷出差>> 张坚庭 冯意清 [嘉峰]
1992/04/09 <<力王>> 周振东 蓝乃才
1992/04/16 <<黄飞鸿2男儿当自强>>吴思远、徐 克 徐 克
1992/05/28 <<龙行天下>> 徐 克 徐 克
1992/06/11 <<表姐,你好嘢!3>> 张坚庭 张坚庭 <<大人驾到>> [二友][宝禾]
1992/06/27 <<危险情人>> 成 龙 麦当杰 [嘉峰]
1992/07/04 <<超级警察>> 何冠昌、成 龙 唐季礼
1992/08/27 <<丐世英雄>> 伍润泉 陈 友 [二友][永高]
1992/10/22 <<卫斯理之老猫>> 蔡 澜 蓝乃才
1992/11/05 <<买起曼克顿>> 曾志伟 黄志强 [友禾]
1992/11/12 <<蝎子战士>> 陈佩华 黎大炜 [宝禾]
1992/12/17 <<92霸王花与霸王花>> 钱升玮 钱升玮 [嘉峰] [正能]
1992/12/24 <<梦醒时分>> 韩培珠 张艾嘉
1992/ <<难得有情郎>> 刘镇伟 陈望华 <<引郎入世>> [华尔街]
1992/ <<超级女警>> 钱升玮 钱升玮 [嘉峰] [正能]
1992/ <<情债>> 罗大卫 张景年 [东龙]
1992/ <<蝎子>> 蔡 澜 李国立
1992/ <<狱凤>> 蔡 澜 李国立
1992/ <<五个寂寞的心>> 蔡 澜、倪 震 陈 果
1992/ <<青少年哪吒>> 郑水枝、李培桂 蔡明亮 [中影]
--------------------------------------------------------

1993/01/16 <<城市猎人>> 蔡 澜 王 晶 [嘉峰]
1993/02/11 <<黄飞鸿3狮王争霸>> 吴思远、徐 克 徐 克 [嘉峰]
1993/04/17 <<爱的精灵>> 蔡 澜 陆剑明
1993/04/22 <<岁月风云上海皇帝>> 萧若元 潘文杰 [嘉峰]
1993/05/13 <<上海皇帝雄霸天下>> 萧若元 潘文杰 [嘉峰]
1993/05/27 <<盲女72小时>> 张坚庭 陈荣照 [二友]
1993/06/10 <<黄飞鸿4王者之风>> 吴思远、徐 克 元 彬 [嘉峰]
1993/06/24 <<重案组>> 蔡 澜 黄志强 [嘉峰]
1993/08/20 <<飞狐外传>> 萧若元 潘文杰 [麦当雄]
1993/09/03 <<少年黄飞鸿铁马骝>> 徐 克 袁和平 [龙祥]
1993/09/03 <<七月十四>> 钱升玮 钱升玮 [正能]
1993/09/16 <<天台的月光>> 蔡 澜 区丁平
1993/10/21 <<超级计划>> 苏孝良、董韵诗 唐季礼
1993/ <<狱凤2杀出重围>> 蔡 澜 李国立
1993/ <<蝎子之灭杀行动>> 蔡 澜 李国立
1993/ <<喜宴>> 李 安 [中影]
--------------------------------------------------------

1994/01/27 <<不扣钮的女孩>> 蔡 澜 黄泰来
1994/02/03 <<醉拳II>> 邓景生、董韵诗 刘家良
1994/03/17 <<飞虎雄心>> 叶广俭 陈嘉上
1994/03/31 <<火烧红莲寺>> 徐 克 林岭东
1994/04/28 <<表姐,你好嘢!IV>> 张坚庭 张坚庭 [二友]
1994/05/12 <<正月十五一生一世>> 钱升玮、邝文伟 钱升玮 [正能]
1994/05/19 <<满清十大酷刑>> 王 晶 林庆隆
1994/08/13 <<梁祝>> 徐 克 徐 克
1994/07/14 <<新英雄本色>> 王 晶 王 晶
1994/07/28 <<中南海保镖>> 李连杰 元 奎
1994/09/08 <<沉默的姑娘>> 陈勋奇 陈勋奇
1994/09/17 <<仙人掌>> 蔡 澜 张文斡
1994/09/29 <<罗命哥罗芳>> 王英杰 [舜禾][正能]
1994/10/06 <<霓虹光管高高挂>> 董韵诗、侯永财 钱永强
1994/11/17 <<黄飞鸿5龙城歼霸>> 吴思远、徐 克 徐 克
--------------------------------------------------------

1995/01/21 <<红番区>> 董韵诗 唐季礼
1995/03/30 <<整蛊王>> 王 晶 李力持 [新标准]
1995/04/13 <<花月佳期>> 徐 克 徐 克 [年代]
1995/04/20 <<血恋>> 蔡 澜 李华月 牟敦芾 [新标准]
1995/04/27 <<狂野生死恋>> 叶广俭 区丁平 [新标准]
1995/05/04 <<女人四十>> 许鞍华 许鞍华
1995/05/11 <<终身大事>> 钱升玮、邝文伟 钱升玮 [正能]
1995/05/18 <<街坊差人>> 蔡 澜、查传谊 查传谊
1995/06/09 <<蜘蛛女>> 卢 坚 [新标准]
1995/06/24 <<空中小姐>> 董韵诗 钱永强
1995/07/01 <<非法赛车>> 王龙纬、陈志舜 柳瑞雄 [龙祥][新一代][舜禾]
1995/08/05 <<霹雳火>> 蔡 澜 陈嘉上
1995/10/05 <<人间有情>> 高志森 高志森 [高志森]
1995/11/01 <<中俄列车大劫案>> 麦当杰 [新香港]
1995/11/09 <<二月三十>> 钱升玮、邝文伟 钱升玮 高林豹 [正能]
1995/11/24 <<南京的基督>> 蔡 澜 区丁平
1995/12/01 <<爆炸令>> 成 龙 邓景生 [威禾]
1995/12/16 <<人约砵兰街>> 马逢国 张泽鸣
1995/12/21 <<刀>> 徐 克 徐 克
--------------------------------------------------------

1996/02/10 <<警察故事4简单任务>>董韵诗 唐季礼 <<白金龙>> [嘉峰]
1996/03/21 <<古惑女之决战江湖>> 王 晶 王 晶
1996/04/04 <<虎度门>> 高志森 舒 琪
1996/06/22 <<孽欲追击档案-邪杀>>黎继明 黎继明
1996/06/29 <<古惑仔3只手遮天>> 文 隽 刘伟强 [嘉乐]
1996/07/25 <<冲锋队怒火街头>> 陈木胜 陈木胜
1996/08/15 <<金枝玉叶2>> 陈可辛 陈可辛 [UFO]
1996/09/27 <<傲气比天高>> 文 隽 刘伟强 [永展]
1996/10/10 <<阿金>> 褶嘉珍、刘家富 许鞍华
1996/10/18 <<天涯海角>> 李志毅 李志毅 [UFO]
1996/11/02 <<甜蜜蜜>> 陈可辛 陈可辛 [UFO]
1996/11/28 <<**男女>> 褶嘉珍 尔东升 罗志良
1996/11/28 <<怪谈协会>> 文隽 王晶 刘伟强/钱文錡 叶伟民 马伟豪 [永展]
1996/12/14 <<赌神3之少年赌神>> 王 晶 王 晶
1996/12/21 <<百分百岩Feel>> 邹文怀 马伟豪 [永展]
1996/12/21 <<食神>> 杨国辉、周星驰 周星驰 李力持 [星辉海外]
--------------------------------------------------------

1997/01/16 <<基佬四十>> 高志森 舒 琪 [高志森]
1997/01/25 <<夜半2点钟>> 廖凤平 钱永强
1997/01/31 <<一个好人>> 蔡 澜 洪金宝
1997/03/14 <<一个字头的诞生>> 杜琪峰 韦家辉 [银河映像]
1997/03/21 <<赤足惊魂>> 黎继明 黎继明 [邹定欧]
1997/03/28 <<97古惑仔战无不胜>> 文 隽 刘伟强 [永展]
1997/04/24 <<猛鬼通宵陪住你>> 钱升玮、邝文伟 钱升玮 [永展]
1997/05/01 <<宋家皇朝>> 吴思远 张婉婷 [富士电视]
1997/05/15 <<我爱厨房>> 严 浩 严 浩 [艺神]
1997/05/15 <<南海十三郎>> 高志森 高志森 [高志森]
1997/06/26 <<完全结婚手册>> 曾志伟 阮世生 [UFO]
1997/07/16 <<记得香蕉成熟时3>> 张之亮 张之亮 [UFO]
1997/08/09 <<神偷谍影>> 邹文怀 陈德森
1997/09/12 <<飞一般爱情小说>> 关锦鹏 叶锦鸿
1997/09/25 <<爱上百分百英雄>> 文 隽、刘伟强 王 晶 [最佳拍档]
1997/10/16 <<猛鬼卡拉OK>> 邹文怀 邓衍成 [永展]
1997/10/23 <<自梳>> 曾志伟、张之亮 张之亮
1997/11/13 <<热血最强>> 钱小蕙 梁柏坚
1997/12/06 <<生日多恋事>> 王 羽 陈会毅 <<边缘青年>>
--------------------------------------------------------

1998/01/17 <<我是谁>> 董韵诗 成 龙 陈木胜
1998/01/24 <<98古惑仔龙争虎斗>> 文 隽 刘伟强 [永展]
1998/02/14 <<愈快乐愈堕落>> 关锦鹏 [晶艺]
1998/02/21 <<洪兴十三妹>> 文 隽 叶伟民 [永展]
1998/03/12 <<我爱你>> 尔东升 李仁港
1998/04/04 <<安娜玛德莲娜>> 钟 珍 奚仲文 [UFO][艺神]
1998/04/23 <<玉蒲团3官人我要>> 王 晶 张 敏 [永展]
1998/06/05 <<新古惑仔>> 王 晶、文 隽 刘伟强 [飞图]
1998/07/18 <<风云雄霸天下>> 文 隽 刘伟强 [最佳拍档]
1998/08/29 <<B计划>> 蔡 澜 板井昭夫 罗礼贤
1998/09/18 <<赤祼凌迟>> 王 晶 曹剑南 杨 雄
1998/10/01 <<浑身是胆>> 陈锡康 元 奎
1998/10/28 <<玻璃之城>> 邹文怀 张婉婷 [UFO][艺神]
1998/12/05 <<杭州王爷>> 高志森、曾德胜 钱永强
1998/12/24 <<幻影特攻>> 成 龙 马楚成
1998/ <<香港大夜总会>> [东映] 日本出品
--------------------------------------------------------

1999/02/13 <<玻璃樽>> 成 龙 谷德昭
1999/07/17 <<中华英雄>> 董韵诗、文 隽 刘伟强 [最佳拍档][先涛数码][银都]
1999/08/21 <<星愿>> 陈锡康 马楚成 [银都]
1999/10/28 <<阳光警察>> 陈锡康 劳剑华
1999/12/23 <<周末狂热>> 陈锡康 麦兆辉
--------------------------------------------------------

2000/01/06 <<辣椒教室>> 陈锡康 陈勋奇
2000/01/28 <<东京攻略>> 陈锡康、庄丽真 马楚成 [红]
2000/03/18 <<炭烧凶咒>> 邓衍成、钟继昌 邓衍成
2000/04/01 <<月亮的秘密>> 尔东升 赵良骏
2000/04/20 <<十二夜>> 陈可辛 林爱华
2000/05/27 <<枪王>> 尔东升 罗志良 [无限映画]
2000/06/30 <<小亲亲>> 钟 珍、谢家慧 奚仲文 [UFO]
2000/07/21 <<胜者为王>> 文 隽 刘伟强 [隽艺]
2000/08/10 <<夏日的麼麼茶>> 陈锡康、庄丽真 马楚成
2000/09/22 <<千年等一天>> 董韵诗 陆剑明 [上海嘉禾][潇湘]
2000/11/02 <<创业玩家>> 高志森 高志森
2000/11/11 <<蓝烟火>> 庄丽真、马楚成 劳剑华
2000/11/24 <<神偷次世代>> 陈锡康、钟 珍 叶伟信 [UFO]
2000/12/22 <<薰衣草>> 钟 珍 叶锦鸿
--------------------------------------------------------

2001/01/18 <<特务迷城>> 成 龙 陈德森
2001/04/12 <<九龙冰室>> 陈锡康、庄丽真 马楚成
2001/05/10 <<爱情保险>> 苏克、史久惠 杨文军
2001/07/26 <<芭啦芭啦樱之花>> 陈锡康、庄丽真 马楚成 <<浪漫樱花>> [天山]
2001/08/16 <<买凶拍人>> 谷德昭 彭浩翔
2001/09/13 <<地上最强>> 陈锡康、史久惠 董 玮 [潇湘]
2001/09/20 <<险角>> 陈锡康 邓衍成
2001/12/06 <<别恋>> 陈锡康 麦兆辉 [嘉乐][领信]
2001/12/15 <<2002>> 谷德昭 叶伟信 <<异灵灵异>>
2002/02/07 <<互动杀人事件>> 陈锡康 邓衍成 [领信]
2002/08/29 <<嫁个有钱人>> 谷德昭 谷德昭 [SML]
2002/01/10 <<停不了的爱>> 文 隽 叶伟民 [艺隽][青年]
2003/01/23 <<行运超人>> 谷德昭、陈锡康 谷德昭
